dev/wave.vcd
$version Generated by VerilatedVcd $end
$timescale 1s $end

 $scope module top $end
  $var wire  1 ' clk_i $end
  $var wire 32 ) inst_o [31:0] $end
  $var wire  1 ( rst_i $end
  $scope module IF $end
   $var wire  1 ' clk_i $end
   $var wire 32 # inst_o [31:0] $end
   $var wire 48 $ pc_wire [47:0] $end
   $var wire  1 , re_wire $end
   $var wire  1 ( rst_i $end
   $scope module PC1 $end
    $var wire  1 ' clk_i $end
    $var wire 48 $ pc_o [47:0] $end
    $var wire  1 ( rst_i $end
   $upscope $end
   $scope module rom1 $end
    $var wire 32 & addr [31:0] $end
    $var wire 48 $ addr_i [47:0] $end
    $var wire  1 ' clk_i $end
    $var wire 32 # inst_o [31:0] $end
    $var wire  1 , re_i $end
    $var wire 48 * writeByte__Vstatic__t_addr [47:0] $end
   $upscope $end
  $upscope $end
 $upscope $end
$enddefinitions $end


#5
b00000000000000000000000000000000 #
b000000000000000000000000000000000000000000000000 $
b00000000000000000000000000000000 &
0'
1(
b00000000000000000000000000000000 )
b000000000000000000000000000000000000000000001111 *
1,
#10
b00000000001000100110001010010011 #
1'
b00000000001000100110001010010011 )
#15
0'
#20
1'
#25
0'
#30
1'
#35
0'
#40
1'
#45
0'
#50
1'
#55
0'
0(
#60
b000000000000000000000000000000000000000000000100 $
b00000000000000000000000000000100 &
1'
#65
0'
#70
b00000000001100100110001010010011 #
b000000000000000000000000000000000000000000001000 $
b00000000000000000000000000001000 &
1'
b00000000001100100110001010010011 )
#75
0'
#80
b00000000010000100110001010010011 #
b000000000000000000000000000000000000000000001100 $
b00000000000000000000000000001100 &
1'
b00000000010000100110001010010011 )
#85
0'
#90
b00000000010100100110001010010011 #
b000000000000000000000000000000000000000000010000 $
b00000000000000000000000000010000 &
1'
b00000000010100100110001010010011 )
#95
0'
#100
b00000000000000000000000000000000 #
b000000000000000000000000000000000000000000010100 $
b00000000000000000000000000010100 &
1'
b00000000000000000000000000000000 )
#105
0'
#110
b000000000000000000000000000000000000000000011000 $
b00000000000000000000000000011000 &
1'
#115
0'
#120
b000000000000000000000000000000000000000000011100 $
b00000000000000000000000000011100 &
1'
#125
0'
#130
b000000000000000000000000000000000000000000100000 $
b00000000000000000000000000100000 &
1'
#135
0'
#140
b000000000000000000000000000000000000000000100100 $
b00000000000000000000000000100100 &
1'
#145
0'
#150
b000000000000000000000000000000000000000000101000 $
b00000000000000000000000000101000 &
1'
#155
0'
#160
b000000000000000000000000000000000000000000101100 $
b00000000000000000000000000101100 &
1'
#165
0'
#170
b000000000000000000000000000000000000000000110000 $
b00000000000000000000000000110000 &
1'
#175
0'
#180
b000000000000000000000000000000000000000000110100 $
b00000000000000000000000000110100 &
1'
#185
0'
#190
b000000000000000000000000000000000000000000111000 $
b00000000000000000000000000111000 &
1'
#195
0'
#200
b000000000000000000000000000000000000000000111100 $
b00000000000000000000000000111100 &
1'
#205
0'
#210
b000000000000000000000000000000000000000001000000 $
b00000000000000000000000001000000 &
1'
#215
0'
#220
b000000000000000000000000000000000000000001000100 $
b00000000000000000000000001000100 &
1'
#225
0'
#230
b000000000000000000000000000000000000000001001000 $
b00000000000000000000000001001000 &
1'
#235
0'
#240
b000000000000000000000000000000000000000001001100 $
b00000000000000000000000001001100 &
1'
#245
0'
#250
b000000000000000000000000000000000000000001010000 $
b00000000000000000000000001010000 &
1'
