sim/rv32ima_soc_tb.vcd
$date
	Thu Jun  9 21:34:04 2022
$end
$version
	Icarus Verilog
$end
$timescale
	1s
$end
$scope module rv32ima_soc_tb $end
$var reg 1 ! CLOCK_50 $end
$var reg 1 " rst $end
$scope module rv32ima_top0 $end
$var wire 1 ! clk $end
$var wire 1 " rst $end
$var wire 1 # rom_ce $end
$var wire 32 $ inst_addr [31:0] $end
$var wire 32 % inst [31:0] $end
$scope module rom0 $end
$var wire 1 # ce_i $end
$var wire 32 & addr_i [31:0] $end
$var reg 32 ' inst_o [31:0] $end
$upscope $end
$scope module rv32IMAcore0 $end
$var wire 1 ! clk_i $end
$var wire 1 ( mem_mem_we_i $end
$var wire 32 ) rom_addr_o [31:0] $end
$var wire 32 * rom_data_i [31:0] $end
$var wire 1 " rst_i $end
$var wire 1 + wb_reg_we $end
$var wire 32 , wb_reg_wdata [31:0] $end
$var wire 5 - wb_reg_waddr [4:0] $end
$var wire 1 # rom_ce_o $end
$var wire 1 . reg2_re $end
$var wire 32 / reg2_data [31:0] $end
$var wire 5 0 reg2_addr [4:0] $end
$var wire 1 1 reg1_re $end
$var wire 32 2 reg1_data [31:0] $end
$var wire 5 3 reg1_addr [4:0] $end
$var wire 32 4 pc [31:0] $end
$var wire 1 5 mem_reg_we_o $end
$var wire 1 6 mem_reg_we_i $end
$var wire 32 7 mem_reg_wdata_o [31:0] $end
$var wire 32 8 mem_reg_wdata_i [31:0] $end
$var wire 5 9 mem_reg_waddr_o [4:0] $end
$var wire 5 : mem_reg_waddr_i [4:0] $end
$var wire 32 ; mem_mem_waddr_i [31:0] $end
$var wire 10 < mem_ctrl [9:0] $end
$var wire 1 = jumpe_o $end
$var wire 1 > jumpe_i $end
$var wire 1 ? if_id_flush $end
$var wire 1 @ id_reg_we_o $end
$var wire 5 A id_reg_waddr_o [4:0] $end
$var wire 32 B id_op2_o [31:0] $end
$var wire 32 C id_op1_o [31:0] $end
$var wire 32 D id_inst_i [31:0] $end
$var wire 32 E id_inst_addr_o [31:0] $end
$var wire 32 F id_inst_addr_i [31:0] $end
$var wire 32 G id_imm_o [31:0] $end
$var wire 1 H id_exe_flush $end
$var wire 10 I id_aluOp_o [9:0] $end
$var wire 1 J exe_reg_we_o $end
$var wire 1 K exe_reg_we_i $end
$var wire 32 L exe_reg_wdata_o [31:0] $end
$var wire 5 M exe_reg_waddr_o [4:0] $end
$var wire 5 N exe_reg_waddr_i [4:0] $end
$var wire 32 O exe_pc_jump_addr_i [31:0] $end
$var wire 32 P exe_op2_i [31:0] $end
$var wire 32 Q exe_op1_i [31:0] $end
$var wire 32 R exe_mem_waddr_o [31:0] $end
$var wire 1 S exe_mem_flush $end
$var wire 32 T exe_inst_addr_o [31:0] $end
$var wire 32 U exe_inst_addr_i [31:0] $end
$var wire 32 V exe_imm_i [31:0] $end
$var wire 10 W exe_aluOp_i [9:0] $end
$var wire 10 X aluOp_i [9:0] $end
$scope module ctrl0 $end
$var wire 1 ! clk_i $end
$var wire 1 " rst_i $end
$var wire 1 > jumpe_i $end
$var wire 10 Y aluOp_i [9:0] $end
$var reg 1 S exe_mem_flush $end
$var reg 1 H id_exe_flush $end
$var reg 1 ? if_id_flush $end
$var reg 1 = jumpe_o $end
$var reg 10 Z mem_ctrl_o [9:0] $end
$upscope $end
$scope module exe0 $end
$var wire 1 [ mem_re_i $end
$var wire 1 \ mem_we_i $end
$var wire 1 " rst_i $end
$var wire 1 K reg_we_i $end
$var wire 32 ] reg_wdata_o [31:0] $end
$var wire 5 ^ reg_waddr_o [4:0] $end
$var wire 5 _ reg_waddr_i [4:0] $end
$var wire 32 ` op2_i [31:0] $end
$var wire 32 a op1_i [31:0] $end
$var wire 32 b mem_addr_o [31:0] $end
$var wire 1 > jumpe_o $end
$var wire 32 c jump_addr_o [31:0] $end
$var wire 32 d inst_addr_i [31:0] $end
$var wire 32 e imm_i [31:0] $end
$var wire 10 f aluOp_i [9:0] $end
$var reg 10 g aluOp_o [9:0] $end
$var reg 1 J reg_we_o $end
$scope module alu0 $end
$var wire 1 h rst_i $end
$var wire 5 i reg_waddr_i [4:0] $end
$var wire 32 j op2_i [31:0] $end
$var wire 32 k op1_i [31:0] $end
$var wire 1 l op1_ge_op2_unsigned $end
$var wire 1 m op1_ge_op2_signed $end
$var wire 32 n inst_addr_i [31:0] $end
$var wire 32 o imm_i [31:0] $end
$var wire 10 p aluOp_i [9:0] $end
$var reg 32 q jump_addr_o [31:0] $end
$var reg 1 > jumpe_o $end
$var reg 32 r mem_addr_o [31:0] $end
$var reg 5 s reg_waddr_o [4:0] $end
$var reg 32 t reg_wdata_o [31:0] $end
$upscope $end
$upscope $end
$scope module exe_mem0 $end
$var wire 1 ! clk_i $end
$var wire 1 S exe_mem_flush $end
$var wire 32 u jump_addr_i [31:0] $end
$var wire 32 v mem_addr_i [31:0] $end
$var wire 1 w mem_ls_bits_i $end
$var wire 1 x mem_re_i $end
$var wire 1 y mem_we_i $end
$var wire 5 z reg_waddr_i [4:0] $end
$var wire 32 { reg_wdata_i [31:0] $end
$var wire 1 J reg_we_i $end
$var wire 1 " rst_i $end
$var reg 32 | jump_addr_o [31:0] $end
$var reg 32 } mem_addr_o [31:0] $end
$var reg 5 ~ reg_waddr_o [4:0] $end
$var reg 32 !" reg_wdata_o [31:0] $end
$var reg 1 6 reg_we_o $end
$upscope $end
$scope module id0 $end
$var wire 5 "" exe_reg_waddr_i [4:0] $end
$var wire 32 #" exe_reg_wdata_i [31:0] $end
$var wire 1 J exe_reg_we_i $end
$var wire 1 " rst_i $end
$var wire 5 $" rs2 [4:0] $end
$var wire 5 %" rs1 [4:0] $end
$var wire 32 &" reg2_rdata_i [31:0] $end
$var wire 32 '" reg1_rdata_i [31:0] $end
$var wire 5 (" rd [4:0] $end
$var wire 7 )" opcode [6:0] $end
$var wire 1 5 mem_reg_we_i $end
$var wire 32 *" mem_reg_wdata_i [31:0] $end
$var wire 5 +" mem_reg_waddr_i [4:0] $end
$var wire 32 ," inst_i [31:0] $end
$var wire 32 -" inst_addr_i [31:0] $end
$var wire 7 ." funct7 [6:0] $end
$var wire 3 /" funct3 [2:0] $end
$var reg 10 0" aluOp_o [9:0] $end
$var reg 32 1" imm [31:0] $end
$var reg 32 2" inst_addr_o [31:0] $end
$var reg 32 3" op1_o [31:0] $end
$var reg 32 4" op2_o [31:0] $end
$var reg 5 5" reg1_raddr_o [4:0] $end
$var reg 1 1 reg1_re_o $end
$var reg 5 6" reg2_raddr_o [4:0] $end
$var reg 1 . reg2_re_o $end
$var reg 5 7" reg_waddr_o [4:0] $end
$var reg 1 @ reg_we_o $end
$upscope $end
$scope module id_exe0 $end
$var wire 10 8" aluOp_i [9:0] $end
$var wire 1 ! clk_i $end
$var wire 1 H id_exe_flush $end
$var wire 32 9" imm_i [31:0] $end
$var wire 32 :" inst_addr_i [31:0] $end
$var wire 1 ;" mem_re_i $end
$var wire 1 <" mem_we_i $end
$var wire 32 =" op1_i [31:0] $end
$var wire 32 >" op2_i [31:0] $end
$var wire 5 ?" reg_waddr_i [4:0] $end
$var wire 1 @ reg_we_i $end
$var wire 1 " rst_i $end
$var reg 10 @" aluOp_o [9:0] $end
$var reg 32 A" imm_o [31:0] $end
$var reg 32 B" inst_addr_o [31:0] $end
$var reg 32 C" op1_o [31:0] $end
$var reg 32 D" op2_o [31:0] $end
$var reg 5 E" reg_waddr_o [4:0] $end
$var reg 1 K reg_we_o $end
$upscope $end
$scope module if_id0 $end
$var wire 1 ! clk_i $end
$var wire 1 ? if_id_flush $end
$var wire 32 F" inst_addr_i [31:0] $end
$var wire 32 G" inst_i [31:0] $end
$var wire 1 " rst_i $end
$var reg 32 H" inst_addr_o [31:0] $end
$var reg 32 I" inst_o [31:0] $end
$upscope $end
$scope module mem0 $end
$var wire 32 J" mem_addr_i [31:0] $end
$var wire 10 K" mem_ctrl_i [9:0] $end
$var wire 1 L" mem_re_i $end
$var wire 1 ( mem_we_i $end
$var wire 5 M" reg_waddr_i [4:0] $end
$var wire 32 N" reg_wdata_i [31:0] $end
$var wire 1 6 reg_we_i $end
$var wire 1 " rst_i $end
$var reg 5 O" reg_waddr_o [4:0] $end
$var reg 32 P" reg_wdata_o [31:0] $end
$var reg 1 5 reg_we_o $end
$upscope $end
$scope module mem_wb0 $end
$var wire 1 ! clk_i $end
$var wire 5 Q" reg_waddr_i [4:0] $end
$var wire 32 R" reg_wdata_i [31:0] $end
$var wire 1 5 reg_we_i $end
$var wire 1 " rst_i $end
$var reg 5 S" reg_waddr_o [4:0] $end
$var reg 32 T" reg_wdata_o [31:0] $end
$var reg 1 + reg_we_o $end
$upscope $end
$scope module pc_reg0 $end
$var wire 1 ! clk_i $end
$var wire 32 U" jump_addr_i [31:0] $end
$var wire 1 = jumpe_i $end
$var wire 1 " rst_i $end
$var reg 1 # ce_o $end
$var reg 32 V" pc_o [31:0] $end
$upscope $end
$scope module regfile0 $end
$var wire 1 ! clk_i $end
$var wire 5 W" raddr1_i [4:0] $end
$var wire 5 X" raddr2_i [4:0] $end
$var wire 1 1 re1_i $end
$var wire 1 . re2_i $end
$var wire 1 " rst_i $end
$var wire 5 Y" waddr_i [4:0] $end
$var wire 32 Z" wdata_i [31:0] $end
$var wire 1 + we_i $end
$var reg 32 [" rdata1_o [31:0] $end
$var reg 32 \" rdata2_o [31:0] $end
$var integer 32 ]" i [31:0] $end
$upscope $end
$upscope $end
$upscope $end
$upscope $end
$enddefinitions $end
#0
$dumpvars
b100000 ]"
b0 \"
b0 ["
bx Z"
bx Y"
b0 X"
b0 W"
bx V"
bx U"
bx T"
bx S"
b0 R"
b0 Q"
b0 P"
b0 O"
bx N"
bx M"
zL"
bx K"
bx J"
bx I"
bx H"
bx G"
bx F"
bx E"
bx D"
bx C"
bx B"
bx A"
bx @"
b0 ?"
b0 >"
b0 ="
z<"
z;"
bx :"
bx 9"
b10011 8"
b0 7"
b0 6"
b0 5"
b0 4"
b0 3"
bx 2"
bx 1"
b10011 0"
bx /"
bx ."
bx -"
bx ,"
b0 +"
b0 *"
bx )"
bx ("
b0 '"
b0 &"
bx %"
bx $"
b0 #"
b0 ""
bx !"
bx ~
bx }
bx |
b0 {
b0 z
zy
zx
zw
bx v
b0 u
b0 t
b0 s
bx r
b0 q
bx p
bx o
bx n
xm
xl
bx k
bx j
bx i
zh
bx g
bx f
bx e
bx d
b0 c
bx b
bx a
bx `
bx _
b0 ^
b0 ]
z\
z[
bx Z
bx Y
bx X
bx W
bx V
bx U
b0 T
xS
bx R
bx Q
bx P
bx O
bx N
b0 M
b0 L
xK
0J
b10011 I
xH
bx G
bx F
bx E
bx D
b0 C
b0 B
b0 A
0@
x?
0>
x=
bx <
bx ;
bx :
b0 9
bx 8
b0 7
x6
05
bx 4
b0 3
b0 2
01
b0 0
b0 /
0.
bx -
bx ,
x+
bx *
bx )
z(
bx '
bx &
bx %
bx $
x#
0"
0!
$end
#10
b0 %
b0 '
b0 *
b0 G"
b0 E
b0 2"
b0 :"
0#
b0 F
b0 -"
b0 H"
b0 V
b0 e
b0 o
b0 A"
b0 N
b0 _
b0 i
b0 E"
0K
1l
1m
b0 P
b0 `
b0 j
b0 D"
b0 Q
b0 a
b0 k
b0 C"
b10011 W
b10011 f
b10011 p
b10011 @"
b0 ;
b0 }
b0 J"
b0 O
b0 |
b0 U"
b0 8
b0 !"
b0 N"
06
b0 :
b0 ~
b0 M"
b0 ,
b0 T"
b0 Z"
1+
b0 -
b0 S"
b0 Y"
0S
0H
0?
b0 $"
b0 %"
b0 ("
b0 ."
b0 /"
b10011 )"
b10011 D
b10011 ,"
b10011 I"
1!
#15
b10011 X
b10011 Y
b10011 g
b0 B
b0 4"
b0 >"
b0 C
b0 3"
b0 ="
b0 G
b0 1"
b0 9"
11
1@
1"
#20
0!
#30
01
1J
bx E
bx 2"
bx :"
b100001110000010010011 %
b100001110000010010011 '
b100001110000010010011 *
b100001110000010010011 G"
1@
b0 )"
b10011 <
b10011 Z
b10011 K"
0+
bx ;
bx }
bx J"
1K
b0 U
b0 d
b0 n
b0 B"
b0 D
b0 ,"
b0 I"
bx F
bx -"
bx H"
b0 $
b0 &
b0 )
b0 F"
b0 4
b0 V"
1#
1!
#40
0!
#50
b1 B
b1 4"
b1 >"
b1100010011 I
b1100010011 0"
b1100010011 8"
b1 G
b1 1"
b1 9"
11
b1 3
b1 5"
b1 W"
b1 A
b1 7"
b1 ?"
b100001010001000100011 %
b100001010001000100011 '
b100001010001000100011 *
b100001010001000100011 G"
b0 E
b0 2"
b0 :"
15
b1 $"
b1 %"
b1 ("
b110 /"
b10011 )"
1@
b100 $
b100 &
b100 )
b100 F"
b100 4
b100 V"
b100001110000010010011 D
b100001110000010010011 ,"
b100001110000010010011 I"
b0 F
b0 -"
b0 H"
bx U
bx d
bx n
bx B"
16
1!
#60
0!
#70
b1 C
b1 3"
b1 ="
b100 G
b100 1"
b100 9"
b100100011 I
b100100011 0"
b100100011 8"
1.
b1 0
b1 6"
b1 X"
b0 A
b0 7"
b0 ?"
0@
b1100010011 X
b1100010011 Y
b1100010011 g
b1 L
b1 ]
b1 t
b1 {
b1 #"
b1 M
b1 ^
b1 s
b1 z
b1 ""
b100 E
b100 2"
b100 :"
bx %
bx '
bx *
bx G"
b100 ("
b10 /"
b100011 )"
1+
b1 V
b1 e
b1 o
b1 A"
b1 N
b1 _
b1 i
b1 E"
0l
0m
b1 P
b1 `
b1 j
b1 D"
b1100010011 W
b1100010011 f
b1100010011 p
b1100010011 @"
b0 U
b0 d
b0 n
b0 B"
b100001010001000100011 D
b100001010001000100011 ,"
b100001010001000100011 I"
b100 F
b100 -"
b100 H"
b1000 $
b1000 &
b1000 )
b1000 F"
b1000 4
b1000 V"
1!
#80
0!
#90
bx B
bx 4"
bx >"
bx C
bx 3"
bx ="
b10011 I
b10011 0"
b10011 8"
0.
b0 0
b0 6"
b0 X"
01
b0 3
b0 5"
b0 W"
bx G
bx 1"
bx 9"
b1000 E
b1000 2"
b1000 :"
b100100011 X
b100100011 Y
b100100011 g
0J
b101 R
b101 b
b101 r
b101 v
b0 M
b0 ^
b0 s
b0 z
b0 ""
b1 7
b1 *"
b1 P"
b1 R"
b1 9
b1 +"
b1 O"
b1 Q"
bx $"
bx %"
bx ("
bx ."
bx /"
bx )"
b1100 $
b1100 &
b1100 )
b1100 F"
b1100 4
b1100 V"
bx D
bx ,"
bx I"
b1000 F
b1000 -"
b1000 H"
b100 V
b100 e
b100 o
b100 A"
b0 N
b0 _
b0 i
b0 E"
0K
1l
1m
b1 Q
b1 a
b1 k
b1 C"
b100100011 W
b100100011 f
b100100011 p
b100100011 @"
b100 U
b100 d
b100 n
b100 B"
b1 8
b1 !"
b1 N"
b1 :
b1 ~
b1 M"
b1100010011 <
b1100010011 Z
b1100010011 K"
1!
#100
0!
#110
05
b0 9
b0 +"
b0 O"
b0 Q"
b10011 X
b10011 Y
b10011 g
bx L
bx ]
bx t
bx {
bx #"
b1100 E
b1100 2"
b1100 :"
b100100011 <
b100100011 Z
b100100011 K"
b1 ,
b1 T"
b1 Z"
b1 -
b1 S"
b1 Y"
b101 ;
b101 }
b101 J"
06
b0 :
b0 ~
b0 M"
bx V
bx e
bx o
bx A"
bx P
bx `
bx j
bx D"
xl
xm
bx Q
bx a
bx k
bx C"
b10011 W
b10011 f
b10011 p
b10011 @"
b1000 U
b1000 d
b1000 n
b1000 B"
b1100 F
b1100 -"
b1100 H"
b10000 $
b10000 &
b10000 )
b10000 F"
b10000 4
b10000 V"
1!
#120
0!
#130
b10000 E
b10000 2"
b10000 :"
bx 7
bx *"
bx P"
bx R"
b10100 $
b10100 &
b10100 )
b10100 F"
b10100 4
b10100 V"
b10000 F
b10000 -"
b10000 H"
b1100 U
b1100 d
b1100 n
b1100 B"
bx 8
bx !"
bx N"
0+
b0 -
b0 S"
b0 Y"
b10011 <
b10011 Z
b10011 K"
1!
#140
0!
#150
b10100 E
b10100 2"
b10100 :"
bx ,
bx T"
bx Z"
b10000 U
b10000 d
b10000 n
b10000 B"
b10100 F
b10100 -"
b10100 H"
b11000 $
b11000 &
b11000 )
b11000 F"
b11000 4
b11000 V"
1!
#160
0!
#170
b11000 E
b11000 2"
b11000 :"
b11100 $
b11100 &
b11100 )
b11100 F"
b11100 4
b11100 V"
b11000 F
b11000 -"
b11000 H"
b10100 U
b10100 d
b10100 n
b10100 B"
1!
#180
0!
#190
b11100 E
b11100 2"
b11100 :"
b11000 U
b11000 d
b11000 n
b11000 B"
b11100 F
b11100 -"
b11100 H"
b100000 $
b100000 &
b100000 )
b100000 F"
b100000 4
b100000 V"
1!
#200
0!
#210
b100000 E
b100000 2"
b100000 :"
b100100 $
b100100 &
b100100 )
b100100 F"
b100100 4
b100100 V"
b100000 F
b100000 -"
b100000 H"
b11100 U
b11100 d
b11100 n
b11100 B"
1!
#220
0!
#230
b100100 E
b100100 2"
b100100 :"
b100000 U
b100000 d
b100000 n
b100000 B"
b100100 F
b100100 -"
b100100 H"
b101000 $
b101000 &
b101000 )
b101000 F"
b101000 4
b101000 V"
1!
#240
0!
#250
b101000 E
b101000 2"
b101000 :"
b101100 $
b101100 &
b101100 )
b101100 F"
b101100 4
b101100 V"
b101000 F
b101000 -"
b101000 H"
b100100 U
b100100 d
b100100 n
b100100 B"
1!
#260
0!
#270
b101100 E
b101100 2"
b101100 :"
b101000 U
b101000 d
b101000 n
b101000 B"
b101100 F
b101100 -"
b101100 H"
b110000 $
b110000 &
b110000 )
b110000 F"
b110000 4
b110000 V"
1!
#280
0!
#290
b110000 E
b110000 2"
b110000 :"
b110100 $
b110100 &
b110100 )
b110100 F"
b110100 4
b110100 V"
b110000 F
b110000 -"
b110000 H"
b101100 U
b101100 d
b101100 n
b101100 B"
1!
#300
0!
#310
b110100 E
b110100 2"
b110100 :"
b110000 U
b110000 d
b110000 n
b110000 B"
b110100 F
b110100 -"
b110100 H"
b111000 $
b111000 &
b111000 )
b111000 F"
b111000 4
b111000 V"
1!
#320
0!
#330
b111000 E
b111000 2"
b111000 :"
b111100 $
b111100 &
b111100 )
b111100 F"
b111100 4
b111100 V"
b111000 F
b111000 -"
b111000 H"
b110100 U
b110100 d
b110100 n
b110100 B"
1!
#340
0!
#350
b111100 E
b111100 2"
b111100 :"
b111000 U
b111000 d
b111000 n
b111000 B"
b111100 F
b111100 -"
b111100 H"
b1000000 $
b1000000 &
b1000000 )
b1000000 F"
b1000000 4
b1000000 V"
1!
#360
0!
#370
b1000000 E
b1000000 2"
b1000000 :"
b1000100 $
b1000100 &
b1000100 )
b1000100 F"
b1000100 4
b1000100 V"
b1000000 F
b1000000 -"
b1000000 H"
b111100 U
b111100 d
b111100 n
b111100 B"
1!
#380
0!
#390
b1000100 E
b1000100 2"
b1000100 :"
b1000000 U
b1000000 d
b1000000 n
b1000000 B"
b1000100 F
b1000100 -"
b1000100 H"
b1001000 $
b1001000 &
b1001000 )
b1001000 F"
b1001000 4
b1001000 V"
1!
#400
0!
#410
b1001000 E
b1001000 2"
b1001000 :"
b1001100 $
b1001100 &
b1001100 )
b1001100 F"
b1001100 4
b1001100 V"
b1001000 F
b1001000 -"
b1001000 H"
b1000100 U
b1000100 d
b1000100 n
b1000100 B"
1!
#420
0!
#430
b1001100 E
b1001100 2"
b1001100 :"
b1001000 U
b1001000 d
b1001000 n
b1001000 B"
b1001100 F
b1001100 -"
b1001100 H"
b1010000 $
b1010000 &
b1010000 )
b1010000 F"
b1010000 4
b1010000 V"
1!
#440
0!
#450
b1010000 E
b1010000 2"
b1010000 :"
b1010100 $
b1010100 &
b1010100 )
b1010100 F"
b1010100 4
b1010100 V"
b1010000 F
b1010000 -"
b1010000 H"
b1001100 U
b1001100 d
b1001100 n
b1001100 B"
1!
#460
0!
#470
b1010100 E
b1010100 2"
b1010100 :"
b1010000 U
b1010000 d
b1010000 n
b1010000 B"
b1010100 F
b1010100 -"
b1010100 H"
b1011000 $
b1011000 &
b1011000 )
b1011000 F"
b1011000 4
b1011000 V"
1!
#480
0!
#490
b1011000 E
b1011000 2"
b1011000 :"
b1011100 $
b1011100 &
b1011100 )
b1011100 F"
b1011100 4
b1011100 V"
b1011000 F
b1011000 -"
b1011000 H"
b1010100 U
b1010100 d
b1010100 n
b1010100 B"
1!
#500
0!
#510
b1011100 E
b1011100 2"
b1011100 :"
b1011000 U
b1011000 d
b1011000 n
b1011000 B"
b1011100 F
b1011100 -"
b1011100 H"
b1100000 $
b1100000 &
b1100000 )
b1100000 F"
b1100000 4
b1100000 V"
1!
#520
0!
#530
b1100000 E
b1100000 2"
b1100000 :"
b1100100 $
b1100100 &
b1100100 )
b1100100 F"
b1100100 4
b1100100 V"
b1100000 F
b1100000 -"
b1100000 H"
b1011100 U
b1011100 d
b1011100 n
b1011100 B"
1!
#540
0!
#550
b1100100 E
b1100100 2"
b1100100 :"
b1100000 U
b1100000 d
b1100000 n
b1100000 B"
b1100100 F
b1100100 -"
b1100100 H"
b1101000 $
b1101000 &
b1101000 )
b1101000 F"
b1101000 4
b1101000 V"
1!
#560
0!
#570
b1101000 E
b1101000 2"
b1101000 :"
b1101100 $
b1101100 &
b1101100 )
b1101100 F"
b1101100 4
b1101100 V"
b1101000 F
b1101000 -"
b1101000 H"
b1100100 U
b1100100 d
b1100100 n
b1100100 B"
1!
#580
0!
#590
b1101100 E
b1101100 2"
b1101100 :"
b1101000 U
b1101000 d
b1101000 n
b1101000 B"
b1101100 F
b1101100 -"
b1101100 H"
b1110000 $
b1110000 &
b1110000 )
b1110000 F"
b1110000 4
b1110000 V"
1!
#600
0!
#610
b1110000 E
b1110000 2"
b1110000 :"
b1110100 $
b1110100 &
b1110100 )
b1110100 F"
b1110100 4
b1110100 V"
b1110000 F
b1110000 -"
b1110000 H"
b1101100 U
b1101100 d
b1101100 n
b1101100 B"
1!
#620
0!
#630
b1110100 E
b1110100 2"
b1110100 :"
b1110000 U
b1110000 d
b1110000 n
b1110000 B"
b1110100 F
b1110100 -"
b1110100 H"
b1111000 $
b1111000 &
b1111000 )
b1111000 F"
b1111000 4
b1111000 V"
1!
#640
0!
#650
b1111000 E
b1111000 2"
b1111000 :"
b1111100 $
b1111100 &
b1111100 )
b1111100 F"
b1111100 4
b1111100 V"
b1111000 F
b1111000 -"
b1111000 H"
b1110100 U
b1110100 d
b1110100 n
b1110100 B"
1!
#660
0!
#670
b1111100 E
b1111100 2"
b1111100 :"
b1111000 U
b1111000 d
b1111000 n
b1111000 B"
b1111100 F
b1111100 -"
b1111100 H"
b10000000 $
b10000000 &
b10000000 )
b10000000 F"
b10000000 4
b10000000 V"
1!
#680
0!
#690
b10000000 E
b10000000 2"
b10000000 :"
b10000100 $
b10000100 &
b10000100 )
b10000100 F"
b10000100 4
b10000100 V"
b10000000 F
b10000000 -"
b10000000 H"
b1111100 U
b1111100 d
b1111100 n
b1111100 B"
1!
#700
0!
#710
b10000100 E
b10000100 2"
b10000100 :"
b10000000 U
b10000000 d
b10000000 n
b10000000 B"
b10000100 F
b10000100 -"
b10000100 H"
b10001000 $
b10001000 &
b10001000 )
b10001000 F"
b10001000 4
b10001000 V"
1!
#720
0!
#730
b10001000 E
b10001000 2"
b10001000 :"
b10001100 $
b10001100 &
b10001100 )
b10001100 F"
b10001100 4
b10001100 V"
b10001000 F
b10001000 -"
b10001000 H"
b10000100 U
b10000100 d
b10000100 n
b10000100 B"
1!
#740
0!
#750
b10001100 E
b10001100 2"
b10001100 :"
b10001000 U
b10001000 d
b10001000 n
b10001000 B"
b10001100 F
b10001100 -"
b10001100 H"
b10010000 $
b10010000 &
b10010000 )
b10010000 F"
b10010000 4
b10010000 V"
1!
#760
0!
#770
b10010000 E
b10010000 2"
b10010000 :"
b10010100 $
b10010100 &
b10010100 )
b10010100 F"
b10010100 4
b10010100 V"
b10010000 F
b10010000 -"
b10010000 H"
b10001100 U
b10001100 d
b10001100 n
b10001100 B"
1!
#780
0!
#790
b10010100 E
b10010100 2"
b10010100 :"
b10010000 U
b10010000 d
b10010000 n
b10010000 B"
b10010100 F
b10010100 -"
b10010100 H"
b10011000 $
b10011000 &
b10011000 )
b10011000 F"
b10011000 4
b10011000 V"
1!
#800
0!
#810
b10011000 E
b10011000 2"
b10011000 :"
b10011100 $
b10011100 &
b10011100 )
b10011100 F"
b10011100 4
b10011100 V"
b10011000 F
b10011000 -"
b10011000 H"
b10010100 U
b10010100 d
b10010100 n
b10010100 B"
1!
#820
0!
#830
b10011100 E
b10011100 2"
b10011100 :"
b10011000 U
b10011000 d
b10011000 n
b10011000 B"
b10011100 F
b10011100 -"
b10011100 H"
b10100000 $
b10100000 &
b10100000 )
b10100000 F"
b10100000 4
b10100000 V"
1!
#840
0!
#850
b10100000 E
b10100000 2"
b10100000 :"
b10100100 $
b10100100 &
b10100100 )
b10100100 F"
b10100100 4
b10100100 V"
b10100000 F
b10100000 -"
b10100000 H"
b10011100 U
b10011100 d
b10011100 n
b10011100 B"
1!
#860
0!
#870
b10100100 E
b10100100 2"
b10100100 :"
b10100000 U
b10100000 d
b10100000 n
b10100000 B"
b10100100 F
b10100100 -"
b10100100 H"
b10101000 $
b10101000 &
b10101000 )
b10101000 F"
b10101000 4
b10101000 V"
1!
#880
0!
#890
b10101000 E
b10101000 2"
b10101000 :"
b10101100 $
b10101100 &
b10101100 )
b10101100 F"
b10101100 4
b10101100 V"
b10101000 F
b10101000 -"
b10101000 H"
b10100100 U
b10100100 d
b10100100 n
b10100100 B"
1!
#900
0!
#910
b10101100 E
b10101100 2"
b10101100 :"
b10101000 U
b10101000 d
b10101000 n
b10101000 B"
b10101100 F
b10101100 -"
b10101100 H"
b10110000 $
b10110000 &
b10110000 )
b10110000 F"
b10110000 4
b10110000 V"
1!
#920
0!
#930
b10110000 E
b10110000 2"
b10110000 :"
b10110100 $
b10110100 &
b10110100 )
b10110100 F"
b10110100 4
b10110100 V"
b10110000 F
b10110000 -"
b10110000 H"
b10101100 U
b10101100 d
b10101100 n
b10101100 B"
1!
#940
0!
#950
b10110100 E
b10110100 2"
b10110100 :"
b10110000 U
b10110000 d
b10110000 n
b10110000 B"
b10110100 F
b10110100 -"
b10110100 H"
b10111000 $
b10111000 &
b10111000 )
b10111000 F"
b10111000 4
b10111000 V"
1!
#960
0!
#970
b10111000 E
b10111000 2"
b10111000 :"
b10111100 $
b10111100 &
b10111100 )
b10111100 F"
b10111100 4
b10111100 V"
b10111000 F
b10111000 -"
b10111000 H"
b10110100 U
b10110100 d
b10110100 n
b10110100 B"
1!
#980
0!
#990
b10111100 E
b10111100 2"
b10111100 :"
b10111000 U
b10111000 d
b10111000 n
b10111000 B"
b10111100 F
b10111100 -"
b10111100 H"
b11000000 $
b11000000 &
b11000000 )
b11000000 F"
b11000000 4
b11000000 V"
1!
#1000
0!
#1010
b11000000 E
b11000000 2"
b11000000 :"
b11000100 $
b11000100 &
b11000100 )
b11000100 F"
b11000100 4
b11000100 V"
b11000000 F
b11000000 -"
b11000000 H"
b10111100 U
b10111100 d
b10111100 n
b10111100 B"
1!
