sim/rv32ima_soc_tb.vcd
$date
	Wed Jun  8 15:08:37 2022
$end
$version
	Icarus Verilog
$end
$timescale
	1s
$end
$scope module rv32ima_soc_tb $end
$var reg 1 ! CLOCK_50 $end
$var reg 1 " rst $end
$scope module rv32ima_top0 $end
$var wire 1 ! clk $end
$var wire 1 " rst $end
$var wire 1 # rom_ce $end
$var wire 32 $ inst_addr [31:0] $end
$var wire 32 % inst [31:0] $end
$scope module rom0 $end
$var wire 1 # ce_i $end
$var wire 32 & addr_i [31:0] $end
$var reg 32 ' inst_o [31:0] $end
$upscope $end
$scope module rv32IMAcore0 $end
$var wire 1 ! clk_i $end
$var wire 32 ( rom_addr_o [31:0] $end
$var wire 32 ) rom_data_i [31:0] $end
$var wire 1 " rst_i $end
$var wire 1 * wb_reg_we $end
$var wire 32 + wb_reg_wdata [31:0] $end
$var wire 5 , wb_reg_waddr [4:0] $end
$var wire 1 # rom_ce_o $end
$var wire 1 - reg2_re $end
$var wire 32 . reg2_data [31:0] $end
$var wire 5 / reg2_addr [4:0] $end
$var wire 1 0 reg1_re $end
$var wire 32 1 reg1_data [31:0] $end
$var wire 5 2 reg1_addr [4:0] $end
$var wire 32 3 pc [31:0] $end
$var wire 1 4 mem_reg_we_o $end
$var wire 1 5 mem_reg_we_i $end
$var wire 32 6 mem_reg_wdata_o [31:0] $end
$var wire 32 7 mem_reg_wdata_i [31:0] $end
$var wire 5 8 mem_reg_waddr_o [4:0] $end
$var wire 5 9 mem_reg_waddr_i [4:0] $end
$var wire 1 : id_reg_we_o $end
$var wire 5 ; id_reg_waddr_o [4:0] $end
$var wire 32 < id_op2_o [31:0] $end
$var wire 32 = id_op1_o [31:0] $end
$var wire 32 > id_inst_i [31:0] $end
$var wire 32 ? id_inst_addr_i [31:0] $end
$var wire 10 @ id_aluOp_o [9:0] $end
$var wire 1 A exe_reg_we_o $end
$var wire 1 B exe_reg_we_i $end
$var wire 32 C exe_reg_wdata_o [31:0] $end
$var wire 5 D exe_reg_waddr_o [4:0] $end
$var wire 5 E exe_reg_waddr_i [4:0] $end
$var wire 32 F exe_op2_i [31:0] $end
$var wire 32 G exe_op1_i [31:0] $end
$var wire 10 H exe_aluOp_i [9:0] $end
$scope module exe0 $end
$var wire 1 " rst_i $end
$var wire 1 A reg_we_o $end
$var wire 1 B reg_we_i $end
$var wire 32 I reg_wdata_o [31:0] $end
$var wire 5 J reg_waddr_o [4:0] $end
$var wire 5 K reg_waddr_i [4:0] $end
$var wire 32 L op2_i [31:0] $end
$var wire 32 M op1_i [31:0] $end
$var wire 10 N aluOp_i [9:0] $end
$scope module alu0 $end
$var wire 1 O rst_i $end
$var wire 1 B reg_we_i $end
$var wire 5 P reg_waddr_i [4:0] $end
$var wire 32 Q op2_i [31:0] $end
$var wire 32 R op1_i [31:0] $end
$var wire 1 S op1_ge_op2_unsigned $end
$var wire 1 T op1_ge_op2_signed $end
$var wire 10 U aluOp_i [9:0] $end
$var reg 5 V reg_waddr_o [4:0] $end
$var reg 32 W reg_wdata_o [31:0] $end
$var reg 1 A reg_we_o $end
$upscope $end
$upscope $end
$scope module exe_mem0 $end
$var wire 1 ! clk_i $end
$var wire 5 X reg_waddr_i [4:0] $end
$var wire 32 Y reg_wdata_i [31:0] $end
$var wire 1 A reg_we_i $end
$var wire 1 " rst_i $end
$var reg 5 Z reg_waddr_o [4:0] $end
$var reg 32 [ reg_wdata_o [31:0] $end
$var reg 1 5 reg_we_o $end
$upscope $end
$scope module id0 $end
$var wire 5 \ exe_reg_waddr_i [4:0] $end
$var wire 32 ] exe_reg_wdata_i [31:0] $end
$var wire 1 A exe_reg_we_i $end
$var wire 1 " rst_i $end
$var wire 5 ^ rs2 [4:0] $end
$var wire 5 _ rs1 [4:0] $end
$var wire 32 ` reg2_rdata_i [31:0] $end
$var wire 32 a reg1_rdata_i [31:0] $end
$var wire 5 b rd [4:0] $end
$var wire 7 c opcode [6:0] $end
$var wire 1 4 mem_reg_we_i $end
$var wire 32 d mem_reg_wdata_i [31:0] $end
$var wire 5 e mem_reg_waddr_i [4:0] $end
$var wire 32 f inst_i [31:0] $end
$var wire 32 g inst_addr_i [31:0] $end
$var wire 7 h funct7 [6:0] $end
$var wire 3 i funct3 [2:0] $end
$var reg 10 j aluOp_o [9:0] $end
$var reg 32 k imm [31:0] $end
$var reg 32 l op1_o [31:0] $end
$var reg 32 m op2_o [31:0] $end
$var reg 5 n reg1_raddr_o [4:0] $end
$var reg 1 0 reg1_re_o $end
$var reg 5 o reg2_raddr_o [4:0] $end
$var reg 1 - reg2_re_o $end
$var reg 5 p reg_waddr_o [4:0] $end
$var reg 1 : reg_we_o $end
$upscope $end
$scope module id_exe0 $end
$var wire 10 q aluOp_i [9:0] $end
$var wire 1 ! clk_i $end
$var wire 32 r op1_i [31:0] $end
$var wire 32 s op2_i [31:0] $end
$var wire 5 t reg_waddr_i [4:0] $end
$var wire 1 : reg_we_i $end
$var wire 1 " rst_i $end
$var reg 10 u aluOp_o [9:0] $end
$var reg 32 v op1_o [31:0] $end
$var reg 32 w op2_o [31:0] $end
$var reg 5 x reg_waddr_o [4:0] $end
$var reg 1 B reg_we_o $end
$upscope $end
$scope module if_id0 $end
$var wire 1 ! clk_i $end
$var wire 32 y inst_addr_i [31:0] $end
$var wire 32 z inst_i [31:0] $end
$var wire 1 " rst_i $end
$var reg 32 { inst_addr_o [31:0] $end
$var reg 32 | inst_o [31:0] $end
$upscope $end
$scope module mem0 $end
$var wire 5 } reg_waddr_i [4:0] $end
$var wire 32 ~ reg_wdata_i [31:0] $end
$var wire 1 5 reg_we_i $end
$var wire 1 " rst_i $end
$var reg 5 !" reg_waddr_o [4:0] $end
$var reg 32 "" reg_wdata_o [31:0] $end
$var reg 1 4 reg_we_o $end
$upscope $end
$scope module mem_wb0 $end
$var wire 1 ! clk_i $end
$var wire 5 #" reg_waddr_i [4:0] $end
$var wire 32 $" reg_wdata_i [31:0] $end
$var wire 1 4 reg_we_i $end
$var wire 1 " rst_i $end
$var reg 5 %" reg_waddr_o [4:0] $end
$var reg 32 &" reg_wdata_o [31:0] $end
$var reg 1 * reg_we_o $end
$upscope $end
$scope module pc_reg0 $end
$var wire 1 ! clk_i $end
$var wire 1 " rst_i $end
$var reg 1 # ce_o $end
$var reg 32 '" pc_o [31:0] $end
$upscope $end
$scope module regfile0 $end
$var wire 1 ! clk_i $end
$var wire 5 (" raddr1_i [4:0] $end
$var wire 5 )" raddr2_i [4:0] $end
$var wire 1 0 re1_i $end
$var wire 1 - re2_i $end
$var wire 1 " rst_i $end
$var wire 5 *" waddr_i [4:0] $end
$var wire 32 +" wdata_i [31:0] $end
$var wire 1 * we_i $end
$var reg 32 ," rdata1_o [31:0] $end
$var reg 32 -" rdata2_o [31:0] $end
$var integer 32 ." i [31:0] $end
$upscope $end
$upscope $end
$upscope $end
$upscope $end
$enddefinitions $end
#0
$dumpvars
b100000 ."
b0 -"
b0 ,"
bx +"
bx *"
b0 )"
b0 ("
bx '"
bx &"
bx %"
b0 $"
b0 #"
b0 ""
b0 !"
bx ~
bx }
bx |
bx {
bx z
bx y
bx x
bx w
bx v
bx u
b0 t
b0 s
b0 r
b10011 q
b0 p
b0 o
b0 n
b0 m
b0 l
bx k
b10011 j
bx i
bx h
bx g
bx f
b0 e
b0 d
bx c
bx b
b0 a
b0 `
bx _
bx ^
b0 ]
b0 \
bx [
bx Z
b0 Y
b0 X
b0 W
b0 V
bx U
xT
xS
bx R
bx Q
bx P
zO
bx N
bx M
bx L
bx K
b0 J
b0 I
bx H
bx G
bx F
bx E
b0 D
b0 C
xB
0A
b10011 @
bx ?
bx >
b0 =
b0 <
b0 ;
0:
bx 9
b0 8
bx 7
b0 6
x5
04
bx 3
b0 2
b0 1
00
b0 /
b0 .
0-
bx ,
bx +
x*
bx )
bx (
bx '
bx &
bx %
bx $
x#
0"
0!
$end
#10
b0 %
b0 '
b0 )
b0 z
0#
b0 ?
b0 g
b0 {
b0 E
b0 K
b0 P
b0 x
0B
1S
1T
b0 F
b0 L
b0 Q
b0 w
b0 G
b0 M
b0 R
b0 v
b10011 H
b10011 N
b10011 U
b10011 u
b0 7
b0 [
b0 ~
05
b0 9
b0 Z
b0 }
b0 +
b0 &"
b0 +"
1*
b0 ,
b0 %"
b0 *"
b0 ^
b0 _
b0 b
b0 h
b0 i
b10011 c
b10011 >
b10011 f
b10011 |
1!
#20
0!
#30
b0 $
b0 &
b0 (
b0 y
b0 3
b0 '"
1!
#40
0!
#50
1!
#60
0!
#70
1!
#80
0!
#90
1!
#100
0!
#110
1!
#120
0!
#130
1!
#140
0!
#150
1!
#160
0!
#170
1!
#180
0!
#190
1!
#195
b0 <
b0 m
b0 s
b0 =
b0 l
b0 r
b0 k
10
1:
1"
#200
0!
#210
00
b11111001110000100110001000010011 %
b11111001110000100110001000010011 '
b11111001110000100110001000010011 )
b11111001110000100110001000010011 z
1A
1:
b0 c
1#
b0 >
b0 f
b0 |
1B
0*
1!
#220
0!
#230
b11111111111111111111111110011100 <
b11111111111111111111111110011100 m
b11111111111111111111111110011100 s
b1100010011 @
b1100010011 j
b1100010011 q
b11111111111111111111111110011100 k
10
b100 2
b100 n
b100 ("
b100 ;
b100 p
b100 t
14
b101000101110001010010011 %
b101000101110001010010011 '
b101000101110001010010011 )
b101000101110001010010011 z
b11100 ^
b100 _
b100 b
b1111100 h
b110 i
b10011 c
1:
15
b11111001110000100110001000010011 >
b11111001110000100110001000010011 f
b11111001110000100110001000010011 |
b10 $
b10 &
b10 (
b10 y
b10 3
b10 '"
1!
#240
0!
#250
b1010 <
b1010 m
b1010 s
b101 2
b101 n
b101 ("
b101 ;
b101 p
b101 t
b10000101000001100110011 %
b10000101000001100110011 '
b10000101000001100110011 )
b10000101000001100110011 z
b1010 k
b11111111111111111111111110011100 C
b11111111111111111111111110011100 I
b11111111111111111111111110011100 W
b11111111111111111111111110011100 Y
b11111111111111111111111110011100 ]
b100 D
b100 J
b100 V
b100 X
b100 \
b1010 ^
b101 _
b101 b
b0 h
b100 $
b100 &
b100 (
b100 y
b100 3
b100 '"
b101000101110001010010011 >
b101000101110001010010011 f
b101000101110001010010011 |
b10 ?
b10 g
b10 {
b100 E
b100 K
b100 P
b100 x
0S
b11111111111111111111111110011100 F
b11111111111111111111111110011100 L
b11111111111111111111111110011100 Q
b11111111111111111111111110011100 w
b1100010011 H
b1100010011 N
b1100010011 U
b1100010011 u
1*
1!
#260
0!
#270
b11111111111111111111111110011100 <
b11111111111111111111111110011100 m
b11111111111111111111111110011100 s
b1010 =
b1010 l
b1010 r
b0 @
b0 j
b0 q
1-
b100 /
b100 o
b100 )"
b110 ;
b110 p
b110 t
b11111111111111111111111110011100 6
b11111111111111111111111110011100 d
b11111111111111111111111110011100 ""
b11111111111111111111111110011100 $"
b100 8
b100 e
b100 !"
b100 #"
b1010 C
b1010 I
b1010 W
b1010 Y
b1010 ]
b101 D
b101 J
b101 V
b101 X
b101 \
b100 k
b1000000010000101000001110110011 %
b1000000010000101000001110110011 '
b1000000010000101000001110110011 )
b1000000010000101000001110110011 z
b100 ^
b110 b
b0 i
b110011 c
b11111111111111111111111110011100 7
b11111111111111111111111110011100 [
b11111111111111111111111110011100 ~
b100 9
b100 Z
b100 }
b101 E
b101 K
b101 P
b101 x
0T
b1010 F
b1010 L
b1010 Q
b1010 w
b10000101000001100110011 >
b10000101000001100110011 f
b10000101000001100110011 |
b100 ?
b100 g
b100 {
b110 $
b110 &
b110 (
b110 y
b110 3
b110 '"
1!
#280
0!
#290
b100000 @
b100000 j
b100000 q
b111 ;
b111 p
b111 t
b10000101100010000110011 %
b10000101100010000110011 '
b10000101100010000110011 )
b10000101100010000110011 z
b11111111111111111111111110100110 C
b11111111111111111111111110100110 I
b11111111111111111111111110100110 W
b11111111111111111111111110100110 Y
b11111111111111111111111110100110 ]
b110 D
b110 J
b110 V
b110 X
b110 \
b1010 6
b1010 d
b1010 ""
b1010 $"
b101 8
b101 e
b101 !"
b101 #"
b11111111111111111111111110011100 .
b11111111111111111111111110011100 `
b11111111111111111111111110011100 -"
b111 b
b100000 h
b1000 $
b1000 &
b1000 (
b1000 y
b1000 3
b1000 '"
b1000000010000101000001110110011 >
b1000000010000101000001110110011 f
b1000000010000101000001110110011 |
b110 ?
b110 g
b110 {
b110 E
b110 K
b110 P
b110 x
b11111111111111111111111110011100 F
b11111111111111111111111110011100 L
b11111111111111111111111110011100 Q
b11111111111111111111111110011100 w
0S
1T
b1010 G
b1010 M
b1010 R
b1010 v
b0 H
b0 N
b0 U
b0 u
b1010 7
b1010 [
b1010 ~
b101 9
b101 Z
b101 }
b11111111111111111111111110011100 +
b11111111111111111111111110011100 &"
b11111111111111111111111110011100 +"
b100 ,
b100 %"
b100 *"
1!
#300
0!
#310
b1000000000 @
b1000000000 j
b1000000000 q
b1000 ;
b1000 p
b1000 t
b11111111111111111111111110100110 6
b11111111111111111111111110100110 d
b11111111111111111111111110100110 ""
b11111111111111111111111110100110 $"
b110 8
b110 e
b110 !"
b110 #"
b1101110 C
b1101110 I
b1101110 W
b1101110 Y
b1101110 ]
b111 D
b111 J
b111 V
b111 X
b111 \
b1010 1
b1010 a
b1010 ,"
b10000101111010010110011 %
b10000101111010010110011 '
b10000101111010010110011 )
b10000101111010010110011 z
b1000 b
b0 h
b100 i
b1010 +
b1010 &"
b1010 +"
b101 ,
b101 %"
b101 *"
b11111111111111111111111110100110 7
b11111111111111111111111110100110 [
b11111111111111111111111110100110 ~
b110 9
b110 Z
b110 }
b111 E
b111 K
b111 P
b111 x
b100000 H
b100000 N
b100000 U
b100000 u
b10000101100010000110011 >
b10000101100010000110011 f
b10000101100010000110011 |
b1000 ?
b1000 g
b1000 {
b1010 $
b1010 &
b1010 (
b1010 y
b1010 3
b1010 '"
1!
#320
0!
#330
b1110000000 @
b1110000000 j
b1110000000 q
b1001 ;
b1001 p
b1001 t
b10000101110010100110011 %
b10000101110010100110011 '
b10000101110010100110011 )
b10000101110010100110011 z
b11111111111111111111111110010110 C
b11111111111111111111111110010110 I
b11111111111111111111111110010110 W
b11111111111111111111111110010110 Y
b11111111111111111111111110010110 ]
b1000 D
b1000 J
b1000 V
b1000 X
b1000 \
b1101110 6
b1101110 d
b1101110 ""
b1101110 $"
b111 8
b111 e
b111 !"
b111 #"
b1001 b
b111 i
b1100 $
b1100 &
b1100 (
b1100 y
b1100 3
b1100 '"
b10000101111010010110011 >
b10000101111010010110011 f
b10000101111010010110011 |
b1010 ?
b1010 g
b1010 {
b1000 E
b1000 K
b1000 P
b1000 x
b1000000000 H
b1000000000 N
b1000000000 U
b1000000000 u
b1101110 7
b1101110 [
b1101110 ~
b111 9
b111 Z
b111 }
b11111111111111111111111110100110 +
b11111111111111111111111110100110 &"
b11111111111111111111111110100110 +"
b110 ,
b110 %"
b110 *"
1!
#340
0!
#350
b1100000000 @
b1100000000 j
b1100000000 q
b1010 ;
b1010 p
b1010 t
b11111111111111111111111110010110 6
b11111111111111111111111110010110 d
b11111111111111111111111110010110 ""
b11111111111111111111111110010110 $"
b1000 8
b1000 e
b1000 !"
b1000 #"
b1000 C
b1000 I
b1000 W
b1000 Y
b1000 ]
b1001 D
b1001 J
b1001 V
b1001 X
b1001 \
b10000101011010110110011 %
b10000101011010110110011 '
b10000101011010110110011 )
b10000101011010110110011 z
b1010 b
b110 i
b1101110 +
b1101110 &"
b1101110 +"
b111 ,
b111 %"
b111 *"
b11111111111111111111111110010110 7
b11111111111111111111111110010110 [
b11111111111111111111111110010110 ~
b1000 9
b1000 Z
b1000 }
b1001 E
b1001 K
b1001 P
b1001 x
b1110000000 H
b1110000000 N
b1110000000 U
b1110000000 u
b10000101110010100110011 >
b10000101110010100110011 f
b10000101110010100110011 |
b1100 ?
b1100 g
b1100 {
b1110 $
b1110 &
b1110 (
b1110 y
b1110 3
b1110 '"
1!
#360
0!
#370
b110000000 @
b110000000 j
b110000000 q
b1011 ;
b1011 p
b1011 t
b10000101010011000110011 %
b10000101010011000110011 '
b10000101010011000110011 )
b10000101010011000110011 z
b11111111111111111111111110011110 C
b11111111111111111111111110011110 I
b11111111111111111111111110011110 W
b11111111111111111111111110011110 Y
b11111111111111111111111110011110 ]
b1010 D
b1010 J
b1010 V
b1010 X
b1010 \
b1000 6
b1000 d
b1000 ""
b1000 $"
b1001 8
b1001 e
b1001 !"
b1001 #"
b1011 b
b11 i
b10000 $
b10000 &
b10000 (
b10000 y
b10000 3
b10000 '"
b10000101011010110110011 >
b10000101011010110110011 f
b10000101011010110110011 |
b1110 ?
b1110 g
b1110 {
b1010 E
b1010 K
b1010 P
b1010 x
b1100000000 H
b1100000000 N
b1100000000 U
b1100000000 u
b1000 7
b1000 [
b1000 ~
b1001 9
b1001 Z
b1001 }
b11111111111111111111111110010110 +
b11111111111111111111111110010110 &"
b11111111111111111111111110010110 +"
b1000 ,
b1000 %"
b1000 *"
1!
#380
0!
#390
b100000000 @
b100000000 j
b100000000 q
b1100 ;
b1100 p
b1100 t
b11111111111111111111111110011110 6
b11111111111111111111111110011110 d
b11111111111111111111111110011110 ""
b11111111111111111111111110011110 $"
b1010 8
b1010 e
b1010 !"
b1010 #"
b1 C
b1 I
b1 W
b1 Y
b1 ]
b1011 D
b1011 J
b1011 V
b1011 X
b1011 \
b10000101001011010110011 %
b10000101001011010110011 '
b10000101001011010110011 )
b10000101001011010110011 z
b1100 b
b10 i
b1000 +
b1000 &"
b1000 +"
b1001 ,
b1001 %"
b1001 *"
b11111111111111111111111110011110 7
b11111111111111111111111110011110 [
b11111111111111111111111110011110 ~
b1010 9
b1010 Z
b1010 }
b1011 E
b1011 K
b1011 P
b1011 x
b110000000 H
b110000000 N
b110000000 U
b110000000 u
b10000101010011000110011 >
b10000101010011000110011 f
b10000101010011000110011 |
b10000 ?
b10000 g
b10000 {
b10010 $
b10010 &
b10010 (
b10010 y
b10010 3
b10010 '"
1!
#400
0!
#410
b10000000 @
b10000000 j
b10000000 q
b1101 ;
b1101 p
b1101 t
b10000101101011100110011 %
b10000101101011100110011 '
b10000101101011100110011 )
b10000101101011100110011 z
b0 C
b0 I
b0 W
b0 Y
b0 ]
b1100 D
b1100 J
b1100 V
b1100 X
b1100 \
b1 6
b1 d
b1 ""
b1 $"
b1011 8
b1011 e
b1011 !"
b1011 #"
b1101 b
b1 i
b10100 $
b10100 &
b10100 (
b10100 y
b10100 3
b10100 '"
b10000101001011010110011 >
b10000101001011010110011 f
b10000101001011010110011 |
b10010 ?
b10010 g
b10010 {
b1100 E
b1100 K
b1100 P
b1100 x
b100000000 H
b100000000 N
b100000000 U
b100000000 u
b1 7
b1 [
b1 ~
b1011 9
b1011 Z
b1011 }
b11111111111111111111111110011110 +
b11111111111111111111111110011110 &"
b11111111111111111111111110011110 +"
b1010 ,
b1010 %"
b1010 *"
1!
#420
0!
#430
b1010000000 @
b1010000000 j
b1010000000 q
b1110 ;
b1110 p
b1110 t
b0 6
b0 d
b0 ""
b0 $"
b1100 8
b1100 e
b1100 !"
b1100 #"
b10100000000000000000000000000000 C
b10100000000000000000000000000000 I
b10100000000000000000000000000000 W
b10100000000000000000000000000000 Y
b10100000000000000000000000000000 ]
b1101 D
b1101 J
b1101 V
b1101 X
b1101 \
b1000000010000101101011110110011 %
b1000000010000101101011110110011 '
b1000000010000101101011110110011 )
b1000000010000101101011110110011 z
b1110 b
b101 i
b1 +
b1 &"
b1 +"
b1011 ,
b1011 %"
b1011 *"
b0 7
b0 [
b0 ~
b1100 9
b1100 Z
b1100 }
b1101 E
b1101 K
b1101 P
b1101 x
b10000000 H
b10000000 N
b10000000 U
b10000000 u
b10000101101011100110011 >
b10000101101011100110011 f
b10000101101011100110011 |
b10100 ?
b10100 g
b10100 {
b10110 $
b10110 &
b10110 (
b10110 y
b10110 3
b10110 '"
1!
#440
0!
#450
b1010100000 @
b1010100000 j
b1010100000 q
b1111 ;
b1111 p
b1111 t
bx %
bx '
bx )
bx z
b0 C
b0 I
b0 W
b0 Y
b0 ]
b1110 D
b1110 J
b1110 V
b1110 X
b1110 \
b10100000000000000000000000000000 6
b10100000000000000000000000000000 d
b10100000000000000000000000000000 ""
b10100000000000000000000000000000 $"
b1101 8
b1101 e
b1101 !"
b1101 #"
b1111 b
b100000 h
b11000 $
b11000 &
b11000 (
b11000 y
b11000 3
b11000 '"
b1000000010000101101011110110011 >
b1000000010000101101011110110011 f
b1000000010000101101011110110011 |
b10110 ?
b10110 g
b10110 {
b1110 E
b1110 K
b1110 P
b1110 x
b1010000000 H
b1010000000 N
b1010000000 U
b1010000000 u
b10100000000000000000000000000000 7
b10100000000000000000000000000000 [
b10100000000000000000000000000000 ~
b1101 9
b1101 Z
b1101 }
b0 +
b0 &"
b0 +"
b1100 ,
b1100 %"
b1100 *"
1!
#460
0!
#470
b0 .
b0 `
b0 -"
b0 1
b0 a
b0 ,"
b100 <
b100 m
b100 s
b100 =
b100 l
b100 r
b10011 @
b10011 j
b10011 q
0-
b0 /
b0 o
b0 )"
00
b0 2
b0 n
b0 ("
b0 ;
b0 p
b0 t
b0 6
b0 d
b0 ""
b0 $"
b1110 8
b1110 e
b1110 !"
b1110 #"
b1111 D
b1111 J
b1111 V
b1111 X
b1111 \
1:
bx ^
bx _
bx b
bx h
bx i
bx c
b10100000000000000000000000000000 +
b10100000000000000000000000000000 &"
b10100000000000000000000000000000 +"
b1101 ,
b1101 %"
b1101 *"
b0 7
b0 [
b0 ~
b1110 9
b1110 Z
b1110 }
b1111 E
b1111 K
b1111 P
b1111 x
b1010100000 H
b1010100000 N
b1010100000 U
b1010100000 u
bx >
bx f
bx |
b11000 ?
b11000 g
b11000 {
b11010 $
b11010 &
b11010 (
b11010 y
b11010 3
b11010 '"
1!
#480
0!
#490
b1000 C
b1000 I
b1000 W
b1000 Y
b1000 ]
b0 D
b0 J
b0 V
b0 X
b0 \
b1111 8
b1111 e
b1111 !"
b1111 #"
b11100 $
b11100 &
b11100 (
b11100 y
b11100 3
b11100 '"
b11010 ?
b11010 g
b11010 {
b0 E
b0 K
b0 P
b0 x
1S
b100 F
b100 L
b100 Q
b100 w
b100 G
b100 M
b100 R
b100 v
b10011 H
b10011 N
b10011 U
b10011 u
b1111 9
b1111 Z
b1111 }
b0 +
b0 &"
b0 +"
b1110 ,
b1110 %"
b1110 *"
1!
#500
0!
#510
b1000 6
b1000 d
b1000 ""
b1000 $"
b0 8
b0 e
b0 !"
b0 #"
b1111 ,
b1111 %"
b1111 *"
b1000 7
b1000 [
b1000 ~
b0 9
b0 Z
b0 }
b11100 ?
b11100 g
b11100 {
b11110 $
b11110 &
b11110 (
b11110 y
b11110 3
b11110 '"
1!
#520
0!
#530
b100000 $
b100000 &
b100000 (
b100000 y
b100000 3
b100000 '"
b11110 ?
b11110 g
b11110 {
b1000 +
b1000 &"
b1000 +"
b0 ,
b0 %"
b0 *"
1!
#540
0!
#550
b100000 ?
b100000 g
b100000 {
b100010 $
b100010 &
b100010 (
b100010 y
b100010 3
b100010 '"
1!
#560
0!
#570
b100100 $
b100100 &
b100100 (
b100100 y
b100100 3
b100100 '"
b100010 ?
b100010 g
b100010 {
1!
#580
0!
#590
b100100 ?
b100100 g
b100100 {
b100110 $
b100110 &
b100110 (
b100110 y
b100110 3
b100110 '"
1!
#600
0!
#610
b101000 $
b101000 &
b101000 (
b101000 y
b101000 3
b101000 '"
b100110 ?
b100110 g
b100110 {
1!
#620
0!
#630
b101000 ?
b101000 g
b101000 {
b101010 $
b101010 &
b101010 (
b101010 y
b101010 3
b101010 '"
1!
#640
0!
#650
b101100 $
b101100 &
b101100 (
b101100 y
b101100 3
b101100 '"
b101010 ?
b101010 g
b101010 {
1!
#660
0!
#670
b101100 ?
b101100 g
b101100 {
b101110 $
b101110 &
b101110 (
b101110 y
b101110 3
b101110 '"
1!
#680
0!
#690
b110000 $
b110000 &
b110000 (
b110000 y
b110000 3
b110000 '"
b101110 ?
b101110 g
b101110 {
1!
#700
0!
#710
b110000 ?
b110000 g
b110000 {
b110010 $
b110010 &
b110010 (
b110010 y
b110010 3
b110010 '"
1!
#720
0!
#730
b110100 $
b110100 &
b110100 (
b110100 y
b110100 3
b110100 '"
b110010 ?
b110010 g
b110010 {
1!
#740
0!
#750
b110100 ?
b110100 g
b110100 {
b110110 $
b110110 &
b110110 (
b110110 y
b110110 3
b110110 '"
1!
#760
0!
#770
b111000 $
b111000 &
b111000 (
b111000 y
b111000 3
b111000 '"
b110110 ?
b110110 g
b110110 {
1!
#780
0!
#790
b111000 ?
b111000 g
b111000 {
b111010 $
b111010 &
b111010 (
b111010 y
b111010 3
b111010 '"
1!
#800
0!
#810
b111100 $
b111100 &
b111100 (
b111100 y
b111100 3
b111100 '"
b111010 ?
b111010 g
b111010 {
1!
#820
0!
#830
b111100 ?
b111100 g
b111100 {
b111110 $
b111110 &
b111110 (
b111110 y
b111110 3
b111110 '"
1!
#840
0!
#850
b1000000 $
b1000000 &
b1000000 (
b1000000 y
b1000000 3
b1000000 '"
b111110 ?
b111110 g
b111110 {
1!
#860
0!
#870
b1000000 ?
b1000000 g
b1000000 {
b1000010 $
b1000010 &
b1000010 (
b1000010 y
b1000010 3
b1000010 '"
1!
#880
0!
#890
b1000100 $
b1000100 &
b1000100 (
b1000100 y
b1000100 3
b1000100 '"
b1000010 ?
b1000010 g
b1000010 {
1!
#900
0!
#910
b1000100 ?
b1000100 g
b1000100 {
b1000110 $
b1000110 &
b1000110 (
b1000110 y
b1000110 3
b1000110 '"
1!
#920
0!
#930
b1001000 $
b1001000 &
b1001000 (
b1001000 y
b1001000 3
b1001000 '"
b1000110 ?
b1000110 g
b1000110 {
1!
#940
0!
#950
b1001000 ?
b1001000 g
b1001000 {
b1001010 $
b1001010 &
b1001010 (
b1001010 y
b1001010 3
b1001010 '"
1!
#960
0!
#970
b1001100 $
b1001100 &
b1001100 (
b1001100 y
b1001100 3
b1001100 '"
b1001010 ?
b1001010 g
b1001010 {
1!
#980
0!
#990
b1001100 ?
b1001100 g
b1001100 {
b1001110 $
b1001110 &
b1001110 (
b1001110 y
b1001110 3
b1001110 '"
1!
#1000
0!
#1010
b1010000 $
b1010000 &
b1010000 (
b1010000 y
b1010000 3
b1010000 '"
b1001110 ?
b1001110 g
b1001110 {
1!
#1020
0!
#1030
b1010000 ?
b1010000 g
b1010000 {
b1010010 $
b1010010 &
b1010010 (
b1010010 y
b1010010 3
b1010010 '"
1!
#1040
0!
#1050
b1010100 $
b1010100 &
b1010100 (
b1010100 y
b1010100 3
b1010100 '"
b1010010 ?
b1010010 g
b1010010 {
1!
#1060
0!
#1070
b1010100 ?
b1010100 g
b1010100 {
b1010110 $
b1010110 &
b1010110 (
b1010110 y
b1010110 3
b1010110 '"
1!
#1080
0!
#1090
b1011000 $
b1011000 &
b1011000 (
b1011000 y
b1011000 3
b1011000 '"
b1010110 ?
b1010110 g
b1010110 {
1!
#1100
0!
#1110
b1011000 ?
b1011000 g
b1011000 {
b1011010 $
b1011010 &
b1011010 (
b1011010 y
b1011010 3
b1011010 '"
1!
#1120
0!
#1130
b1011100 $
b1011100 &
b1011100 (
b1011100 y
b1011100 3
b1011100 '"
b1011010 ?
b1011010 g
b1011010 {
1!
#1140
0!
#1150
b1011100 ?
b1011100 g
b1011100 {
b1011110 $
b1011110 &
b1011110 (
b1011110 y
b1011110 3
b1011110 '"
1!
#1160
0!
#1170
b1100000 $
b1100000 &
b1100000 (
b1100000 y
b1100000 3
b1100000 '"
b1011110 ?
b1011110 g
b1011110 {
1!
#1180
0!
#1190
b1100000 ?
b1100000 g
b1100000 {
b1100010 $
b1100010 &
b1100010 (
b1100010 y
b1100010 3
b1100010 '"
1!
